[
	{
		"name": "Admin",
		"description": "Admin can do all.",
		"target": "subject.authorities.contains('ROLE_ADMIN')",
		"condition": "true"
	},
	{
		"name": "User can edit his data",
		"description": "User can edit his data",
		"target": "subject.person.personId == resource.createdBy.personId && action == 'edit'",
		"condition": "true"
	},
	{
		"name": "User can delete his data",
		"description": "User can delete his data",
		"target": "subject.person.personId == resource.createdBy.personId && action == 'delete'",
		"condition": "true"
	},
	{
		"name": "User can view his data",
		"description": "User view his data",
		"target": "subject.person.department == resource.createdBy.department && action == 'view'",
		"condition": "true"
	},

	{
		"name": "Dumb",
		"description": "Simple case",
		"target": "1 == 1",
		"condition": "true"
	}
]
