[
	{
		"name": "Admin",
		"description": "Admin can do all.",
		"target": "subject.authorities.contains('ROLE_ADMIN')",
		"condition": "true"
	},
	{
		"name": "User can edit his data",
		"description": "User can edit his data",
		"target": "subject.person.personId == resource.createdBy.personId && action == 'edit'",
		"condition": "true"
	},
	{
		"name": "User can delete his data",
		"description": "User can delete his data",
		"target": "subject.person.personId == resource.createdBy.personId && action == 'delete'",
		"condition": "true"
	},
	{
		"name": "User can view his data",
		"description": "User view his data",
		"target": "subject.person.personId == resource.createdBy.personId && action == 'view'",
		"condition": "true"
	},
	{
		"name": "User can view data of his department",
		"description": "User view data of his department",
		"target": "subject.person.department == resource.createdBy.department && action == 'view'",
		"condition": "true"
	},
	{
		"name": "User can view data of department of his company",
		"description": "User view data of department of his company",
		"target": "subject.person.department.company == resource.createdBy.department.company && action == 'view'",
		"condition": "true"
	}
]
